…
``` r
output = vector("list", length = 500)

for(i in 1:500) {
  
  output[[i]] = sim_regression(n_subj = 30)
  
}

output |> 
  bind_rows()
```

    ## # A tibble: 500 × 2
    ##    beta0_hat beta1_hat
    ##        <dbl>     <dbl>
    ##  1      1.82      3.29
    ##  2      1.84      2.92
    ##  3      2.02      3.05
    ##  4      2.08      3.02
    ##  5      2.02      2.91
    ##  6      2.23      2.97
    ##  7      1.84      3.38
    ##  8      1.62      3.27
    ##  9      1.96      3.03
    ## 10      2.35      2.89
    ## # ℹ 490 more rows
…
